('D:\\PycharmProjects\\CourseWork\\build\\main\\PYZ-00.pyz',
 [('Authors_gui',
   'D:\\PycharmProjects\\CourseWork\\Authors_gui.py',
   'PYMODULE'),
  ('PySide6',
   'C:\\Users\\anton\\AppData\\Local\\Programs\\Python\\Python312\\Lib\\site-packages\\PySide6\\__init__.py',
   'PYMODULE'),
  ('PySide6.support',
   'C:\\Users\\anton\\AppData\\Local\\Programs\\Python\\Python312\\Lib\\site-packages\\PySide6\\support\\__init__.py',
   'PYMODULE'),
  ('PySide6.support.deprecated',
   'C:\\Users\\anton\\AppData\\Local\\Programs\\Python\\Python312\\Lib\\site-packages\\PySide6\\support\\deprecated.py',
   'PYMODULE'),
  ('_compat_pickle',
   'C:\\Users\\anton\\AppData\\Local\\Programs\\Python\\Python312\\Lib\\_compat_pickle.py',
   'PYMODULE'),
  ('_compression',
   'C:\\Users\\anton\\AppData\\Local\\Programs\\Python\\Python312\\Lib\\_compression.py',
   'PYMODULE'),
  ('_py_abc',
   'C:\\Users\\anton\\AppData\\Local\\Programs\\Python\\Python312\\Lib\\_py_abc.py',
   'PYMODULE'),
  ('_pydatetime',
   'C:\\Users\\anton\\AppData\\Local\\Programs\\Python\\Python312\\Lib\\_pydatetime.py',
   'PYMODULE'),
  ('_pydecimal',
   'C:\\Users\\anton\\AppData\\Local\\Programs\\Python\\Python312\\Lib\\_pydecimal.py',
   'PYMODULE'),
  ('_pyi_rth_utils',
   'C:\\Users\\anton\\AppData\\Local\\Programs\\Python\\Python312\\Lib\\site-packages\\PyInstaller\\fake-modules\\_pyi_rth_utils\\__init__.py',
   'PYMODULE'),
  ('_pyi_rth_utils.qt',
   'C:\\Users\\anton\\AppData\\Local\\Programs\\Python\\Python312\\Lib\\site-packages\\PyInstaller\\fake-modules\\_pyi_rth_utils\\qt.py',
   'PYMODULE'),
  ('_strptime',
   'C:\\Users\\anton\\AppData\\Local\\Programs\\Python\\Python312\\Lib\\_strptime.py',
   'PYMODULE'),
  ('_threading_local',
   'C:\\Users\\anton\\AppData\\Local\\Programs\\Python\\Python312\\Lib\\_threading_local.py',
   'PYMODULE'),
  ('about_gui', 'D:\\PycharmProjects\\CourseWork\\about_gui.py', 'PYMODULE'),
  ('argparse',
   'C:\\Users\\anton\\AppData\\Local\\Programs\\Python\\Python312\\Lib\\argparse.py',
   'PYMODULE'),
  ('ast',
   'C:\\Users\\anton\\AppData\\Local\\Programs\\Python\\Python312\\Lib\\ast.py',
   'PYMODULE'),
  ('base64',
   'C:\\Users\\anton\\AppData\\Local\\Programs\\Python\\Python312\\Lib\\base64.py',
   'PYMODULE'),
  ('bisect',
   'C:\\Users\\anton\\AppData\\Local\\Programs\\Python\\Python312\\Lib\\bisect.py',
   'PYMODULE'),
  ('bz2',
   'C:\\Users\\anton\\AppData\\Local\\Programs\\Python\\Python312\\Lib\\bz2.py',
   'PYMODULE'),
  ('calendar',
   'C:\\Users\\anton\\AppData\\Local\\Programs\\Python\\Python312\\Lib\\calendar.py',
   'PYMODULE'),
  ('contextlib',
   'C:\\Users\\anton\\AppData\\Local\\Programs\\Python\\Python312\\Lib\\contextlib.py',
   'PYMODULE'),
  ('contextvars',
   'C:\\Users\\anton\\AppData\\Local\\Programs\\Python\\Python312\\Lib\\contextvars.py',
   'PYMODULE'),
  ('copy',
   'C:\\Users\\anton\\AppData\\Local\\Programs\\Python\\Python312\\Lib\\copy.py',
   'PYMODULE'),
  ('csv',
   'C:\\Users\\anton\\AppData\\Local\\Programs\\Python\\Python312\\Lib\\csv.py',
   'PYMODULE'),
  ('dataclasses',
   'C:\\Users\\anton\\AppData\\Local\\Programs\\Python\\Python312\\Lib\\dataclasses.py',
   'PYMODULE'),
  ('datetime',
   'C:\\Users\\anton\\AppData\\Local\\Programs\\Python\\Python312\\Lib\\datetime.py',
   'PYMODULE'),
  ('decimal',
   'C:\\Users\\anton\\AppData\\Local\\Programs\\Python\\Python312\\Lib\\decimal.py',
   'PYMODULE'),
  ('dis',
   'C:\\Users\\anton\\AppData\\Local\\Programs\\Python\\Python312\\Lib\\dis.py',
   'PYMODULE'),
  ('email',
   'C:\\Users\\anton\\AppData\\Local\\Programs\\Python\\Python312\\Lib\\email\\__init__.py',
   'PYMODULE'),
  ('email._encoded_words',
   'C:\\Users\\anton\\AppData\\Local\\Programs\\Python\\Python312\\Lib\\email\\_encoded_words.py',
   'PYMODULE'),
  ('email._header_value_parser',
   'C:\\Users\\anton\\AppData\\Local\\Programs\\Python\\Python312\\Lib\\email\\_header_value_parser.py',
   'PYMODULE'),
  ('email._parseaddr',
   'C:\\Users\\anton\\AppData\\Local\\Programs\\Python\\Python312\\Lib\\email\\_parseaddr.py',
   'PYMODULE'),
  ('email._policybase',
   'C:\\Users\\anton\\AppData\\Local\\Programs\\Python\\Python312\\Lib\\email\\_policybase.py',
   'PYMODULE'),
  ('email.base64mime',
   'C:\\Users\\anton\\AppData\\Local\\Programs\\Python\\Python312\\Lib\\email\\base64mime.py',
   'PYMODULE'),
  ('email.charset',
   'C:\\Users\\anton\\AppData\\Local\\Programs\\Python\\Python312\\Lib\\email\\charset.py',
   'PYMODULE'),
  ('email.contentmanager',
   'C:\\Users\\anton\\AppData\\Local\\Programs\\Python\\Python312\\Lib\\email\\contentmanager.py',
   'PYMODULE'),
  ('email.encoders',
   'C:\\Users\\anton\\AppData\\Local\\Programs\\Python\\Python312\\Lib\\email\\encoders.py',
   'PYMODULE'),
  ('email.errors',
   'C:\\Users\\anton\\AppData\\Local\\Programs\\Python\\Python312\\Lib\\email\\errors.py',
   'PYMODULE'),
  ('email.feedparser',
   'C:\\Users\\anton\\AppData\\Local\\Programs\\Python\\Python312\\Lib\\email\\feedparser.py',
   'PYMODULE'),
  ('email.generator',
   'C:\\Users\\anton\\AppData\\Local\\Programs\\Python\\Python312\\Lib\\email\\generator.py',
   'PYMODULE'),
  ('email.header',
   'C:\\Users\\anton\\AppData\\Local\\Programs\\Python\\Python312\\Lib\\email\\header.py',
   'PYMODULE'),
  ('email.headerregistry',
   'C:\\Users\\anton\\AppData\\Local\\Programs\\Python\\Python312\\Lib\\email\\headerregistry.py',
   'PYMODULE'),
  ('email.iterators',
   'C:\\Users\\anton\\AppData\\Local\\Programs\\Python\\Python312\\Lib\\email\\iterators.py',
   'PYMODULE'),
  ('email.message',
   'C:\\Users\\anton\\AppData\\Local\\Programs\\Python\\Python312\\Lib\\email\\message.py',
   'PYMODULE'),
  ('email.parser',
   'C:\\Users\\anton\\AppData\\Local\\Programs\\Python\\Python312\\Lib\\email\\parser.py',
   'PYMODULE'),
  ('email.policy',
   'C:\\Users\\anton\\AppData\\Local\\Programs\\Python\\Python312\\Lib\\email\\policy.py',
   'PYMODULE'),
  ('email.quoprimime',
   'C:\\Users\\anton\\AppData\\Local\\Programs\\Python\\Python312\\Lib\\email\\quoprimime.py',
   'PYMODULE'),
  ('email.utils',
   'C:\\Users\\anton\\AppData\\Local\\Programs\\Python\\Python312\\Lib\\email\\utils.py',
   'PYMODULE'),
  ('fnmatch',
   'C:\\Users\\anton\\AppData\\Local\\Programs\\Python\\Python312\\Lib\\fnmatch.py',
   'PYMODULE'),
  ('fractions',
   'C:\\Users\\anton\\AppData\\Local\\Programs\\Python\\Python312\\Lib\\fractions.py',
   'PYMODULE'),
  ('getopt',
   'C:\\Users\\anton\\AppData\\Local\\Programs\\Python\\Python312\\Lib\\getopt.py',
   'PYMODULE'),
  ('gettext',
   'C:\\Users\\anton\\AppData\\Local\\Programs\\Python\\Python312\\Lib\\gettext.py',
   'PYMODULE'),
  ('gui_pypass', 'D:\\PycharmProjects\\CourseWork\\gui_pypass.py', 'PYMODULE'),
  ('gzip',
   'C:\\Users\\anton\\AppData\\Local\\Programs\\Python\\Python312\\Lib\\gzip.py',
   'PYMODULE'),
  ('hashlib',
   'C:\\Users\\anton\\AppData\\Local\\Programs\\Python\\Python312\\Lib\\hashlib.py',
   'PYMODULE'),
  ('importlib',
   'C:\\Users\\anton\\AppData\\Local\\Programs\\Python\\Python312\\Lib\\importlib\\__init__.py',
   'PYMODULE'),
  ('importlib._abc',
   'C:\\Users\\anton\\AppData\\Local\\Programs\\Python\\Python312\\Lib\\importlib\\_abc.py',
   'PYMODULE'),
  ('importlib._bootstrap',
   'C:\\Users\\anton\\AppData\\Local\\Programs\\Python\\Python312\\Lib\\importlib\\_bootstrap.py',
   'PYMODULE'),
  ('importlib._bootstrap_external',
   'C:\\Users\\anton\\AppData\\Local\\Programs\\Python\\Python312\\Lib\\importlib\\_bootstrap_external.py',
   'PYMODULE'),
  ('importlib.abc',
   'C:\\Users\\anton\\AppData\\Local\\Programs\\Python\\Python312\\Lib\\importlib\\abc.py',
   'PYMODULE'),
  ('importlib.machinery',
   'C:\\Users\\anton\\AppData\\Local\\Programs\\Python\\Python312\\Lib\\importlib\\machinery.py',
   'PYMODULE'),
  ('importlib.metadata',
   'C:\\Users\\anton\\AppData\\Local\\Programs\\Python\\Python312\\Lib\\importlib\\metadata\\__init__.py',
   'PYMODULE'),
  ('importlib.metadata._adapters',
   'C:\\Users\\anton\\AppData\\Local\\Programs\\Python\\Python312\\Lib\\importlib\\metadata\\_adapters.py',
   'PYMODULE'),
  ('importlib.metadata._collections',
   'C:\\Users\\anton\\AppData\\Local\\Programs\\Python\\Python312\\Lib\\importlib\\metadata\\_collections.py',
   'PYMODULE'),
  ('importlib.metadata._functools',
   'C:\\Users\\anton\\AppData\\Local\\Programs\\Python\\Python312\\Lib\\importlib\\metadata\\_functools.py',
   'PYMODULE'),
  ('importlib.metadata._itertools',
   'C:\\Users\\anton\\AppData\\Local\\Programs\\Python\\Python312\\Lib\\importlib\\metadata\\_itertools.py',
   'PYMODULE'),
  ('importlib.metadata._meta',
   'C:\\Users\\anton\\AppData\\Local\\Programs\\Python\\Python312\\Lib\\importlib\\metadata\\_meta.py',
   'PYMODULE'),
  ('importlib.metadata._text',
   'C:\\Users\\anton\\AppData\\Local\\Programs\\Python\\Python312\\Lib\\importlib\\metadata\\_text.py',
   'PYMODULE'),
  ('importlib.readers',
   'C:\\Users\\anton\\AppData\\Local\\Programs\\Python\\Python312\\Lib\\importlib\\readers.py',
   'PYMODULE'),
  ('importlib.resources',
   'C:\\Users\\anton\\AppData\\Local\\Programs\\Python\\Python312\\Lib\\importlib\\resources\\__init__.py',
   'PYMODULE'),
  ('importlib.resources._adapters',
   'C:\\Users\\anton\\AppData\\Local\\Programs\\Python\\Python312\\Lib\\importlib\\resources\\_adapters.py',
   'PYMODULE'),
  ('importlib.resources._common',
   'C:\\Users\\anton\\AppData\\Local\\Programs\\Python\\Python312\\Lib\\importlib\\resources\\_common.py',
   'PYMODULE'),
  ('importlib.resources._itertools',
   'C:\\Users\\anton\\AppData\\Local\\Programs\\Python\\Python312\\Lib\\importlib\\resources\\_itertools.py',
   'PYMODULE'),
  ('importlib.resources._legacy',
   'C:\\Users\\anton\\AppData\\Local\\Programs\\Python\\Python312\\Lib\\importlib\\resources\\_legacy.py',
   'PYMODULE'),
  ('importlib.resources.abc',
   'C:\\Users\\anton\\AppData\\Local\\Programs\\Python\\Python312\\Lib\\importlib\\resources\\abc.py',
   'PYMODULE'),
  ('importlib.resources.readers',
   'C:\\Users\\anton\\AppData\\Local\\Programs\\Python\\Python312\\Lib\\importlib\\resources\\readers.py',
   'PYMODULE'),
  ('importlib.util',
   'C:\\Users\\anton\\AppData\\Local\\Programs\\Python\\Python312\\Lib\\importlib\\util.py',
   'PYMODULE'),
  ('inspect',
   'C:\\Users\\anton\\AppData\\Local\\Programs\\Python\\Python312\\Lib\\inspect.py',
   'PYMODULE'),
  ('ipaddress',
   'C:\\Users\\anton\\AppData\\Local\\Programs\\Python\\Python312\\Lib\\ipaddress.py',
   'PYMODULE'),
  ('logging',
   'C:\\Users\\anton\\AppData\\Local\\Programs\\Python\\Python312\\Lib\\logging\\__init__.py',
   'PYMODULE'),
  ('lzma',
   'C:\\Users\\anton\\AppData\\Local\\Programs\\Python\\Python312\\Lib\\lzma.py',
   'PYMODULE'),
  ('methods_pypass',
   'D:\\PycharmProjects\\CourseWork\\methods_pypass.py',
   'PYMODULE'),
  ('numbers',
   'C:\\Users\\anton\\AppData\\Local\\Programs\\Python\\Python312\\Lib\\numbers.py',
   'PYMODULE'),
  ('opcode',
   'C:\\Users\\anton\\AppData\\Local\\Programs\\Python\\Python312\\Lib\\opcode.py',
   'PYMODULE'),
  ('pathlib',
   'C:\\Users\\anton\\AppData\\Local\\Programs\\Python\\Python312\\Lib\\pathlib.py',
   'PYMODULE'),
  ('pickle',
   'C:\\Users\\anton\\AppData\\Local\\Programs\\Python\\Python312\\Lib\\pickle.py',
   'PYMODULE'),
  ('pprint',
   'C:\\Users\\anton\\AppData\\Local\\Programs\\Python\\Python312\\Lib\\pprint.py',
   'PYMODULE'),
  ('py_compile',
   'C:\\Users\\anton\\AppData\\Local\\Programs\\Python\\Python312\\Lib\\py_compile.py',
   'PYMODULE'),
  ('quopri',
   'C:\\Users\\anton\\AppData\\Local\\Programs\\Python\\Python312\\Lib\\quopri.py',
   'PYMODULE'),
  ('random',
   'C:\\Users\\anton\\AppData\\Local\\Programs\\Python\\Python312\\Lib\\random.py',
   'PYMODULE'),
  ('selectors',
   'C:\\Users\\anton\\AppData\\Local\\Programs\\Python\\Python312\\Lib\\selectors.py',
   'PYMODULE'),
  ('shiboken6',
   'C:\\Users\\anton\\AppData\\Local\\Programs\\Python\\Python312\\Lib\\site-packages\\shiboken6\\__init__.py',
   'PYMODULE'),
  ('shutil',
   'C:\\Users\\anton\\AppData\\Local\\Programs\\Python\\Python312\\Lib\\shutil.py',
   'PYMODULE'),
  ('signal',
   'C:\\Users\\anton\\AppData\\Local\\Programs\\Python\\Python312\\Lib\\signal.py',
   'PYMODULE'),
  ('socket',
   'C:\\Users\\anton\\AppData\\Local\\Programs\\Python\\Python312\\Lib\\socket.py',
   'PYMODULE'),
  ('statistics',
   'C:\\Users\\anton\\AppData\\Local\\Programs\\Python\\Python312\\Lib\\statistics.py',
   'PYMODULE'),
  ('string',
   'C:\\Users\\anton\\AppData\\Local\\Programs\\Python\\Python312\\Lib\\string.py',
   'PYMODULE'),
  ('stringprep',
   'C:\\Users\\anton\\AppData\\Local\\Programs\\Python\\Python312\\Lib\\stringprep.py',
   'PYMODULE'),
  ('subprocess',
   'C:\\Users\\anton\\AppData\\Local\\Programs\\Python\\Python312\\Lib\\subprocess.py',
   'PYMODULE'),
  ('tarfile',
   'C:\\Users\\anton\\AppData\\Local\\Programs\\Python\\Python312\\Lib\\tarfile.py',
   'PYMODULE'),
  ('tempfile',
   'C:\\Users\\anton\\AppData\\Local\\Programs\\Python\\Python312\\Lib\\tempfile.py',
   'PYMODULE'),
  ('textwrap',
   'C:\\Users\\anton\\AppData\\Local\\Programs\\Python\\Python312\\Lib\\textwrap.py',
   'PYMODULE'),
  ('theory', 'D:\\PycharmProjects\\CourseWork\\theory.py', 'PYMODULE'),
  ('threading',
   'C:\\Users\\anton\\AppData\\Local\\Programs\\Python\\Python312\\Lib\\threading.py',
   'PYMODULE'),
  ('token',
   'C:\\Users\\anton\\AppData\\Local\\Programs\\Python\\Python312\\Lib\\token.py',
   'PYMODULE'),
  ('tokenize',
   'C:\\Users\\anton\\AppData\\Local\\Programs\\Python\\Python312\\Lib\\tokenize.py',
   'PYMODULE'),
  ('tracemalloc',
   'C:\\Users\\anton\\AppData\\Local\\Programs\\Python\\Python312\\Lib\\tracemalloc.py',
   'PYMODULE'),
  ('typing',
   'C:\\Users\\anton\\AppData\\Local\\Programs\\Python\\Python312\\Lib\\typing.py',
   'PYMODULE'),
  ('urllib',
   'C:\\Users\\anton\\AppData\\Local\\Programs\\Python\\Python312\\Lib\\urllib\\__init__.py',
   'PYMODULE'),
  ('urllib.parse',
   'C:\\Users\\anton\\AppData\\Local\\Programs\\Python\\Python312\\Lib\\urllib\\parse.py',
   'PYMODULE'),
  ('welcome_gui',
   'D:\\PycharmProjects\\CourseWork\\welcome_gui.py',
   'PYMODULE'),
  ('zipfile',
   'C:\\Users\\anton\\AppData\\Local\\Programs\\Python\\Python312\\Lib\\zipfile\\__init__.py',
   'PYMODULE'),
  ('zipfile._path',
   'C:\\Users\\anton\\AppData\\Local\\Programs\\Python\\Python312\\Lib\\zipfile\\_path\\__init__.py',
   'PYMODULE'),
  ('zipfile._path.glob',
   'C:\\Users\\anton\\AppData\\Local\\Programs\\Python\\Python312\\Lib\\zipfile\\_path\\glob.py',
   'PYMODULE')])
